…
    #png("plot2.png", width=480, height=480)
    #with(by_date, {
    #    plot(aggregate(steps ~ interval, data = by_date, FUN = mean), type = "l")
    #})
    #dev.off()

The 5-minute interval that, on average, contains the maximum number of steps
============================================================================

    by_interval <- group_by(my_tib2, interval)
    by_interval_sum <- summarise(by_interval, max_steps = max(steps, na.rm = TRUE))
    arrange(by_interval_sum, desc(max_steps))

    ## # A tibble: 288 x 2
    ##    interval max_steps
    ##       <int>     <dbl>
    ##  1      615       806
    ##  2      900       802
    ##  3      550       794
    ##  4      720       789
    ##  5      835       786
    ##  6      925       785
    ##  7     1600       785
    ##  8     1635       785
    ##  9     1140       783
    ## 10      850       781
    ## # ... with 278 more rows
…
